{
	"$schema": "https://schemas.wp.org/trunk/block.json",
	"apiVersion": 2,
	"name": "fantassin/assessment-step",
	"version": "0.1.0",
	"title": "Assessment Step",
	"category": "common",
	"description": "",
	"supports": {
		"html": false
	},
	"textdomain": "fantassin-learning-management-system",
	"editorScript": "file:./index.js"
}
