{
	"$schema": "https://schemas.wp.org/trunk/block.json",
	"apiVersion": 2,
	"name": "fantassin/multi-response",
	"version": "0.1.0",
	"title": "Multi Response",
	"category": "common",
	"icon": "smiley",
	"description": "",
	"supports": {
		"html": false,
		"parent": ["fantassin/question"],
		"lock": {
			"remove": true,
			"move": true
		}
	},
	"textdomain": "fantassin-learning-management-system",
	"editorScript": "file:./index.js"
}
